0      0.999520      0.999198      0.999842
1      0.998740      0.998269      0.999211
2      0.859080      0.852398      0.865762
3      0.799420      0.792641      0.806199
4      0.709900      0.699959      0.719841
5      0.688930      0.678817      0.699043
6      0.711320      0.700960      0.721680
7      0.688170      0.678056      0.698284
8      0.577300      0.566310      0.588290
9      0.567630      0.556924      0.578336
10      0.555950      0.544406      0.567494
11      0.539730      0.528473      0.550987
12      0.533270      0.522711      0.543829
13      0.522700      0.511283      0.534117
14      0.539810      0.527806      0.551814
15      0.520080      0.508659      0.531501
16      0.515810      0.504326      0.527294
17      0.505540      0.494332      0.516748
18      0.498100      0.486248      0.509952
19      0.476740      0.465260      0.488220
20      0.147680      0.139865      0.155495
21      0.140710      0.134030      0.147390
22      0.132510      0.126493      0.138527
23      0.127600      0.121553      0.133647
24      0.128570      0.122395      0.134745
25      0.123960      0.117968      0.129952
26      0.119440      0.113567      0.125313
27      0.101730      0.096732      0.106728
28      0.102250      0.096770      0.107730
29      0.099670      0.094498      0.104842
30      0.089590      0.084836      0.094344
