0      0.605950      0.594358      0.617542
1      0.588560      0.577395      0.599725
2      0.609330      0.597252      0.621408
3      0.558270      0.546878      0.569662
4      0.554300      0.542766      0.565834
5      0.542130      0.530116      0.554144
6      0.542110      0.529197      0.555023
7      0.548100      0.535509      0.560691
8      0.538580      0.525917      0.551243
9      0.547070      0.534743      0.559397
10      0.537300      0.524590      0.550010
11      0.517540      0.504548      0.530532
12      0.514040      0.501155      0.526925
13      0.518010      0.505208      0.530812
14      0.492740      0.480107      0.505373
15      0.497330      0.484414      0.510246
16      0.509440      0.496014      0.522866
17      0.475350      0.462457      0.488243
18      0.492720      0.479776      0.505664
19      0.483840      0.471100      0.496580
20      0.465530      0.452687      0.478373
21      0.455700      0.442745      0.468655
22      0.453360      0.440364      0.466356
23      0.467780      0.454107      0.481453
24      0.439310      0.425761      0.452859
25      0.433090      0.420236      0.445944
26      0.439960      0.426742      0.453178
27      0.427190      0.414283      0.440097
28      0.384190      0.372472      0.395908
29      0.407250      0.393976      0.420524
30      0.373840      0.361332      0.386348
