0      0.999160      0.998700      0.999620
1      0.999300      0.998933      0.999667
2      0.999360      0.999024      0.999696
3      0.998640      0.998082      0.999198
4      0.997340      0.996479      0.998201
5      0.873160      0.866623      0.879697
6      0.866150      0.859617      0.872683
7      0.861600      0.855086      0.868114
8      0.736930      0.727505      0.746355
9      0.727960      0.718421      0.737499
10      0.716470      0.706527      0.726413
11      0.689170      0.679988      0.698352
12      0.694950      0.684889      0.705011
13      0.678580      0.668408      0.688752
14      0.596390      0.585452      0.607328
15      0.595250      0.584468      0.606032
16      0.594890      0.583603      0.606177
17      0.542900      0.532581      0.553219
18      0.566600      0.554997      0.578203
19      0.542710      0.531592      0.553828
20      0.526070      0.515413      0.536727
21      0.540700      0.529926      0.551474
22      0.531540      0.520349      0.542731
23      0.514730      0.504124      0.525336
24      0.513670      0.502653      0.524687
25      0.483970      0.473378      0.494562
26      0.494850      0.483465      0.506235
27      0.481800      0.470730      0.492870
28      0.458830      0.447462      0.470198
29      0.444880      0.434057      0.455703
30      0.443700      0.432412      0.454988
