0      0.602670      0.590627      0.614713
1      0.545830      0.535696      0.555964
2      0.529820      0.519744      0.539896
3      0.525590      0.515140      0.536040
4      0.581100      0.569201      0.592999
5      0.603120      0.590812      0.615428
6      0.550410      0.538516      0.562304
7      0.562760      0.550601      0.574919
8      0.553280      0.540840      0.565720
9      0.527620      0.515311      0.539929
10      0.536410      0.524451      0.548369
11      0.512410      0.500352      0.524468
12      0.492120      0.479402      0.504838
13      0.492890      0.480566      0.505214
14      0.486710      0.473932      0.499488
15      0.480500      0.467953      0.493047
16      0.448900      0.436843      0.460957
17      0.474960      0.461776      0.488144
18      0.438480      0.426983      0.449977
19      0.439220      0.427442      0.450998
20      0.423180      0.411837      0.434523
21      0.412840      0.400772      0.424908
22      0.413450      0.401329      0.425571
23      0.404790      0.393305      0.416275
24      0.214270      0.204799      0.223741
25      0.224990      0.214559      0.235421
26      0.204240      0.194546      0.213934
27      0.193610      0.184739      0.202481
28      0.195910      0.187091      0.204729
29      0.196940      0.188154      0.205726
30      0.191020      0.181657      0.200383
