0      0.998290      0.997639      0.998941
1      0.998700      0.998191      0.999209
2      0.998100      0.997394      0.998806
3      0.834270      0.827548      0.840992
4      0.864860      0.857514      0.872206
5      0.772870      0.764233      0.781507
6      0.706140      0.696166      0.716114
7      0.703110      0.693244      0.712976
8      0.693230      0.683373      0.703087
9      0.684540      0.674766      0.694314
10      0.582330      0.571443      0.593217
11      0.557110      0.546601      0.567619
12      0.562780      0.551608      0.573952
13      0.549730      0.538946      0.560514
14      0.550010      0.538626      0.561394
15      0.553920      0.542761      0.565079
16      0.536340      0.525449      0.547231
17      0.520150      0.509415      0.530885
18      0.497200      0.486266      0.508134
19      0.477830      0.467011      0.488649
20      0.485620      0.474668      0.496572
21      0.473040      0.462836      0.483244
22      0.489820      0.478375      0.501265
23      0.455190      0.444627      0.465753
24      0.174430      0.166568      0.182292
25      0.167490      0.159577      0.175403
26      0.170710      0.162288      0.179132
27      0.172250      0.164343      0.180157
28      0.162920      0.155124      0.170716
29      0.159510      0.151972      0.167048
30      0.148960      0.142103      0.155817
